{
  "type": "service_account",
  "project_id": "coeurorphelins-68c62",
  "private_key_id": "74887b3758e7c57cc16cc2663b08f7207f2ac828",
  "private_key": "-----BEGIN PRIVATE KEY-----\nMIIEvgIBADANBgkqhkiG9w0BAQEFAASCBKgwggSkAgEAAoIBAQDISfcGKIfEBucC\nFzitCvjzJenknjJUXeZpxZZxVmiZsokgZmCrpn0gogR2Gg3h2GqxGl/xBBfnVaCX\nAGH6mUD4QdHrmcwxI7H5qs+ns2K8Y7IWVXyn2cXm7VnP42pMhBJT1byRMc6wZFkx\nmymzvPigvMHVVaBnrFAcUcDirUUe87nWN1eufqJJTpM74ZvgWjXCfHEUWsJR3y8A\nNXXmu7ZoC5uosVjnLcAs4e21VbXcx9gBorecDBPy8j2OpjhSBFF90JxQxlmZPPvn\nF8ALoEOVnwIugoCEcB1llOicg/8XR8QI3qHHVjL+Ozfn12MQpJpNJZOM4LzouQKG\nkJviG4i5AgMBAAECggEAEwyv5ULNGOikJ5eAUTsKLwwj2RXvyQTuUZCUrL5wb+/i\naXW7S5An9gba4EW9nMWp7iLJTcHbKSpEfiAv8XcKjiIqfltQJ7tSpeGoYvWlli/w\nQ/4I/2jv0PUxtdtWJKVqHdWmG/QuCapdrmFo37rBNf6F/A2rFjk2HF9tNlIPETCn\nnLaZV8KUSHfASqsimSoTMr/pJy5v8DPCd3mFMo7X4EZ2iioYSckE6y+/PMfuvHhN\ns/rBoWpYAPJnsLKJR7gluesGm5bMs4Std+aj6+fk8PRgcvGbw8HrGdTy8oFhsvv6\njSdRg0ZwV29XXCiU+9oX0ID/fUlQAU8Wy2s11KrEYQKBgQDo5flhbHJ9imnt5t9T\n2sq0hGIxTiNIUfH2mq+smWStirSmd3ZafasujcOut/qSOcsRckkz0QTzI4aoTM3z\nzSgErs0WOY+bi7E4EbSVCxk054DeKyLPS9ciPsW2+Jf7UAURn12ycSSxtET+4qxS\nMyni2hWTPJgXpTHtA7qxlsrKSQKBgQDcJ+9E9tyShidIGJZrnf7KM1PStXy53kL3\nuN1Uk+gt0AI/g3z+zqcqBi06v39cv6R1Jb/66OWozUSPkzdA3Q++FmS5riPOtDva\nev96STLHD2ZQpKdR9u3mNLMCJQhgIUIe14kkX/WzxOsHf/2bEZLWo2D93lfPGVMG\nAb3uKOpK8QKBgQCgPVKmwDnJvIkDgTyY8klTiF4S9GL8KD1lYaqLA4Msj+mZO0p4\nGkzEHA/Nz5GcOB1KpKpO93oDW6cTdryhCL+G8Un0B6iR6bwGCtCHV3qBVuLoeR9b\nJyAe1LeuGz5eUAEczdxmoMgRaCmsgQL1D3S7Ozdq9V7jreo6270A4PIn2QKBgD8m\nmWTP5x+Eqdnta6B9FqwLoxzLAHcUgWMrvRlYv/38L9jmL8Grp5nPYcP7UF5bfqI3\n7OTdT5tnHiaNFQlfH/fn1obIo+7UFmMqawQ54P3mtfOl93T0fvNM5JhV5RwmDiBo\ntScg+4rQjpZ9KVME7HjzLoxD7i4y1nTfpQqe4+4RAoGBANNQSohY/pJe+wwTFEXM\nIIemVJJdClC8/I6vEz3tTfZpnMOpLKB5mxUwEDwqVx+knBzkL+oTLfe4p1oTy22Z\nJkFqJIF9KMS189frrAoiUDWHkqEqzemGXY+sNxKBssivS9m4pamlvGm2nYolbcXn\nfcFk4fFxxQyd6Mt8bs9IBhPB\n-----END PRIVATE KEY-----\n",
  "client_email": "firebase-adminsdk-p5shq@coeurorphelins-68c62.iam.gserviceaccount.com",
  "client_id": "100479419556626187115",
  "auth_uri": "https://accounts.google.com/o/oauth2/auth",
  "token_uri": "https://oauth2.googleapis.com/token",
  "auth_provider_x509_cert_url": "https://www.googleapis.com/oauth2/v1/certs",
  "client_x509_cert_url": "https://www.googleapis.com/robot/v1/metadata/x509/firebase-adminsdk-p5shq%40coeurorphelins-68c62.iam.gserviceaccount.com"
}
